{
	"process_id" : 90287,
	"version" : "2018.4.11f1",
	"app_path" : "/Applications/Unity/Hub/Editor/2018.4.11f1/Unity.app",
	"app_contents_path" : "/Applications/Unity/Hub/Editor/2018.4.11f1/Unity.app/Contents"
}