{
  "project_info": {
    "project_number": "302501486615",
    "firebase_url": "https://fire-foo.firebaseio.com",
    "project_id": "fire-foo",
    "storage_bucket": "fire-foo.appspot.com"
  },
  "client": [
    {
      "client_info": {
        "mobilesdk_app_id": "1:302501486615:android:e1620a43e0c20740ea7c52",
        "android_client_info": {
          "package_name": "com.OliashGames.FireFoo"
        }
      },
      "oauth_client": [
        {
          "client_id": "302501486615-b72n7o476lqqf0rrpf6prh7f651slus4.apps.googleusercontent.com",
          "client_type": 3
        }
      ],
      "api_key": [
        {
          "current_key": "AIzaSyAvORcMHNiDa6Qs3FPyDPjutBdAfXlqyD4"
        }
      ],
      "services": {
        "appinvite_service": {
          "other_platform_oauth_client": [
            {
              "client_id": "302501486615-b72n7o476lqqf0rrpf6prh7f651slus4.apps.googleusercontent.com",
              "client_type": 3
            }
          ]
        }
      }
    }
  ],
  "configuration_version": "1"
}